Library/Bee/artifacts/mvdfrm/UnityEditor.TestRunner.ref.dll_DE1D13444BAAFBE7.mvfrm
Library/Bee/artifacts/mvdfrm/UnityEditor.UI.ref.dll_BD0E97F52A0DF729.mvfrm
Library/Bee/artifacts/mvdfrm/UnityEngine.TestRunner.ref.dll_AA3B5DF2776E59D2.mvfrm
Library/Bee/artifacts/mvdfrm/UnityEngine.UI.ref.dll_79746E5030301F94.mvfrm
Library/Bee/artifacts/mvdfrm/Unity.Android.Gradle.dll_55F6DEAFC0BF2C77.mvfrm
Library/Bee/artifacts/mvdfrm/Unity.Android.Types.dll_5613B91E82B7E7B5.mvfrm
Library/Bee/artifacts/mvdfrm/UnityEditor.Android.Extensions.dll_A4EA23DCAF5FC917.mvfrm
Library/Bee/artifacts/mvdfrm/UnityEditor.WebGL.Extensions.dll_096E227AD03FDA11.mvfrm
Library/Bee/artifacts/mvdfrm/UnityEditor.Graphs.dll_0D740A573DDC34AB.mvfrm
Library/Bee/artifacts/mvdfrm/UnityEditor.CoreModule.dll_78D14E30F4486379.mvfrm
Library/Bee/artifacts/mvdfrm/UnityEditor.DeviceSimulatorModule.dll_B118C35BFF143298.mvfrm
Library/Bee/artifacts/mvdfrm/UnityEditor.DiagnosticsModule.dll_518CAF5341B1FEE6.mvfrm
Library/Bee/artifacts/mvdfrm/UnityEditor.dll_C4F2CC3B89288CCC.mvfrm
Library/Bee/artifacts/mvdfrm/UnityEditor.GraphViewModule.dll_91A040F4B82D41FD.mvfrm
Library/Bee/artifacts/mvdfrm/UnityEditor.PackageManagerUIModule.dll_2C7AE1AE0FA00395.mvfrm
Library/Bee/artifacts/mvdfrm/UnityEditor.QuickSearchModule.dll_DC9C30609A88FB3F.mvfrm
Library/Bee/artifacts/mvdfrm/UnityEditor.SceneTemplateModule.dll_D7DA7890D3DCA7A0.mvfrm
Library/Bee/artifacts/mvdfrm/UnityEditor.TextCoreFontEngineModule.dll_6318FE177D3018D7.mvfrm
Library/Bee/artifacts/mvdfrm/UnityEditor.TextCoreTextEngineModule.dll_AB0134890CB3D1F5.mvfrm
Library/Bee/artifacts/mvdfrm/UnityEditor.UIBuilderModule.dll_E628EE112AE5BB31.mvfrm
Library/Bee/artifacts/mvdfrm/UnityEditor.UIElementsModule.dll_E3FE0F96A425AA15.mvfrm
Library/Bee/artifacts/mvdfrm/UnityEditor.UIElementsSamplesModule.dll_F30E137A05BB0FA8.mvfrm
Library/Bee/artifacts/mvdfrm/UnityEditor.UIServiceModule.dll_1F1AFF74141D0B4B.mvfrm
Library/Bee/artifacts/mvdfrm/UnityEditor.UnityConnectModule.dll_7311DAB4B7EDCEAF.mvfrm
Library/Bee/artifacts/mvdfrm/UnityEngine.AccessibilityModule.dll_0A7FE427D452CF3D.mvfrm
Library/Bee/artifacts/mvdfrm/UnityEngine.AIModule.dll_74CC1A805DCCFCAD.mvfrm
Library/Bee/artifacts/mvdfrm/UnityEngine.AndroidJNIModule.dll_6246F869ED4518EB.mvfrm
Library/Bee/artifacts/mvdfrm/UnityEngine.AnimationModule.dll_6025BD1D928A16A3.mvfrm
Library/Bee/artifacts/mvdfrm/UnityEngine.ARModule.dll_2E3EDF83BAEA5B76.mvfrm
Library/Bee/artifacts/mvdfrm/UnityEngine.AssetBundleModule.dll_20856351FCEFB031.mvfrm
Library/Bee/artifacts/mvdfrm/UnityEngine.AudioModule.dll_8EEA7DCEECB496D5.mvfrm
Library/Bee/artifacts/mvdfrm/UnityEngine.ClothModule.dll_F5D2DAC9C6D175B9.mvfrm
Library/Bee/artifacts/mvdfrm/UnityEngine.ClusterInputModule.dll_F2AE4FCA6975A175.mvfrm
Library/Bee/artifacts/mvdfrm/UnityEngine.ClusterRendererModule.dll_B6C585CD6ECF401C.mvfrm
Library/Bee/artifacts/mvdfrm/UnityEngine.CoreModule.dll_9BF221839C4DCEA4.mvfrm
Library/Bee/artifacts/mvdfrm/UnityEngine.CrashReportingModule.dll_C13604AB3361F0BC.mvfrm
Library/Bee/artifacts/mvdfrm/UnityEngine.DirectorModule.dll_D8E6D65FFD04A5C1.mvfrm
Library/Bee/artifacts/mvdfrm/UnityEngine.dll_F7971313E79C19B1.mvfrm
Library/Bee/artifacts/mvdfrm/UnityEngine.DSPGraphModule.dll_DE3837C96F6576E2.mvfrm
Library/Bee/artifacts/mvdfrm/UnityEngine.GameCenterModule.dll_8C944284B38609DC.mvfrm
Library/Bee/artifacts/mvdfrm/UnityEngine.GIModule.dll_0D08638DF97BE4C7.mvfrm
Library/Bee/artifacts/mvdfrm/UnityEngine.GridModule.dll_79633D71B4A2649B.mvfrm
Library/Bee/artifacts/mvdfrm/UnityEngine.HotReloadModule.dll_E16E7B236DBD3225.mvfrm
Library/Bee/artifacts/mvdfrm/UnityEngine.ImageConversionModule.dll_22B7837DF0F3F810.mvfrm
Library/Bee/artifacts/mvdfrm/UnityEngine.IMGUIModule.dll_C74A1D35B2E62AB6.mvfrm
Library/Bee/artifacts/mvdfrm/UnityEngine.InputLegacyModule.dll_B1CA7E7094E16622.mvfrm
Library/Bee/artifacts/mvdfrm/UnityEngine.InputModule.dll_F560457F62ECBB79.mvfrm
Library/Bee/artifacts/mvdfrm/UnityEngine.JSONSerializeModule.dll_6A976D63D38E2FC7.mvfrm
Library/Bee/artifacts/mvdfrm/UnityEngine.LocalizationModule.dll_30FB1A1D00F1946E.mvfrm
Library/Bee/artifacts/mvdfrm/UnityEngine.NVIDIAModule.dll_982AFB9B4614FF90.mvfrm
Library/Bee/artifacts/mvdfrm/UnityEngine.ParticleSystemModule.dll_14484DF7A1737C4A.mvfrm
Library/Bee/artifacts/mvdfrm/UnityEngine.PerformanceReportingModule.dll_783D5A1A6F950763.mvfrm
Library/Bee/artifacts/mvdfrm/UnityEngine.Physics2DModule.dll_ACCBAD0E33870E38.mvfrm
Library/Bee/artifacts/mvdfrm/UnityEngine.PhysicsModule.dll_D3FA69CF1A1D9E46.mvfrm
Library/Bee/artifacts/mvdfrm/UnityEngine.ProfilerModule.dll_0B2D0F96965E2CCE.mvfrm
Library/Bee/artifacts/mvdfrm/UnityEngine.RuntimeInitializeOnLoadManagerInitializerModule.dll_6B5D7D73CC6CEF01.mvfrm
Library/Bee/artifacts/mvdfrm/UnityEngine.ScreenCaptureModule.dll_847F1AE8E7FA5C29.mvfrm
Library/Bee/artifacts/mvdfrm/UnityEngine.SharedInternalsModule.dll_A6C8C2536821F360.mvfrm
Library/Bee/artifacts/mvdfrm/UnityEngine.SpriteMaskModule.dll_75C0B514D4F59F56.mvfrm
Library/Bee/artifacts/mvdfrm/UnityEngine.SpriteShapeModule.dll_39E690ACB291E83B.mvfrm
Library/Bee/artifacts/mvdfrm/UnityEngine.StreamingModule.dll_14BAAA6DE211CDE1.mvfrm
Library/Bee/artifacts/mvdfrm/UnityEngine.SubstanceModule.dll_F165BEB72D64CBEF.mvfrm
Library/Bee/artifacts/mvdfrm/UnityEngine.SubsystemsModule.dll_E06E1B76A33D8769.mvfrm
Library/Bee/artifacts/mvdfrm/UnityEngine.TerrainModule.dll_EE40E53DEFDBE734.mvfrm
Library/Bee/artifacts/mvdfrm/UnityEngine.TerrainPhysicsModule.dll_14C2F6CABAB676D7.mvfrm
Library/Bee/artifacts/mvdfrm/UnityEngine.TextCoreFontEngineModule.dll_E178796A902DD7A2.mvfrm
Library/Bee/artifacts/mvdfrm/UnityEngine.TextCoreTextEngineModule.dll_2960AFDC1FB190C0.mvfrm
Library/Bee/artifacts/mvdfrm/UnityEngine.TextRenderingModule.dll_ADBE8CF39F31DC1E.mvfrm
Library/Bee/artifacts/mvdfrm/UnityEngine.TilemapModule.dll_8D3D4CBF0798C83D.mvfrm
Library/Bee/artifacts/mvdfrm/UnityEngine.TLSModule.dll_CA3E06710D35ED9A.mvfrm
Library/Bee/artifacts/mvdfrm/UnityEngine.UIElementsModule.dll_E4AC7CDEA669C360.mvfrm
Library/Bee/artifacts/mvdfrm/UnityEngine.UIElementsNativeModule.dll_76F49643811873B7.mvfrm
Library/Bee/artifacts/mvdfrm/UnityEngine.UIModule.dll_703FB8ADBA140259.mvfrm
Library/Bee/artifacts/mvdfrm/UnityEngine.UmbraModule.dll_09BF29E779DB4248.mvfrm
Library/Bee/artifacts/mvdfrm/UnityEngine.UNETModule.dll_2E98696CE95CC41D.mvfrm
Library/Bee/artifacts/mvdfrm/UnityEngine.UnityAnalyticsModule.dll_33E7BEC14D9ACE46.mvfrm
Library/Bee/artifacts/mvdfrm/UnityEngine.UnityConnectModule.dll_60715EC3B275CF5A.mvfrm
Library/Bee/artifacts/mvdfrm/UnityEngine.UnityCurlModule.dll_93425E4F029E0890.mvfrm
Library/Bee/artifacts/mvdfrm/UnityEngine.UnityTestProtocolModule.dll_AED0C96C5FB664FE.mvfrm
Library/Bee/artifacts/mvdfrm/UnityEngine.UnityWebRequestAssetBundleModule.dll_8838490B1AA93597.mvfrm
Library/Bee/artifacts/mvdfrm/UnityEngine.UnityWebRequestAudioModule.dll_F039ADF8F5FFD1FB.mvfrm
Library/Bee/artifacts/mvdfrm/UnityEngine.UnityWebRequestModule.dll_34568B27FBE8928F.mvfrm
Library/Bee/artifacts/mvdfrm/UnityEngine.UnityWebRequestTextureModule.dll_F15439F9F4914530.mvfrm
Library/Bee/artifacts/mvdfrm/UnityEngine.UnityWebRequestWWWModule.dll_F422F5380F714D2C.mvfrm
Library/Bee/artifacts/mvdfrm/UnityEngine.VehiclesModule.dll_50A9CFDF772E755C.mvfrm
Library/Bee/artifacts/mvdfrm/UnityEngine.VFXModule.dll_4B1C9EDFE3A35707.mvfrm
Library/Bee/artifacts/mvdfrm/UnityEngine.VideoModule.dll_B3F40239AF46B27A.mvfrm
Library/Bee/artifacts/mvdfrm/UnityEngine.VirtualTexturingModule.dll_9B814AB259C6F442.mvfrm
Library/Bee/artifacts/mvdfrm/UnityEngine.VRModule.dll_C311DF335BCE87D1.mvfrm
Library/Bee/artifacts/mvdfrm/UnityEngine.WindModule.dll_1240FCAC2D844D0D.mvfrm
Library/Bee/artifacts/mvdfrm/UnityEngine.XRModule.dll_F5D0A237E508D52F.mvfrm
Library/Bee/artifacts/mvdfrm/UnityEditor.OSXStandalone.Extensions.dll_47FD233BED3DB0E2.mvfrm
Library/Bee/artifacts/mvdfrm/Unity.Plastic.Antlr3.Runtime.dll_67179195E04A360E.mvfrm
Library/Bee/artifacts/mvdfrm/Unity.Plastic.Newtonsoft.Json.dll_DEC935ADF4C58747.mvfrm
Library/Bee/artifacts/mvdfrm/Unity.VisualScripting.IonicZip.dll_55444F386E0702CC.mvfrm
Library/Bee/artifacts/mvdfrm/Unity.VisualScripting.YamlDotNet.dll_4CE4B46D06C30170.mvfrm
Library/Bee/artifacts/mvdfrm/Unity.VisualScripting.TextureAssets.dll_E402DDC0C7905F68.mvfrm
Library/Bee/artifacts/mvdfrm/Unity.VisualScripting.Antlr3.Runtime.dll_FE51DB4E378C118F.mvfrm